STAT 413/613: HW on List Columns and COVID19
…
Remove any columns other than case_types and data from df.

df should have four observations of two variables.

df %>% 
  select(case_type, data) ->
  df
df$data[[3]]

## # A tibble: 3,342 x 457
##         UID iso2  iso3  code3  FIPS Admin2   Province_State Country_Region   Lat
##       <dbl> <chr> <chr> <dbl> <dbl> <chr>    <chr>          <chr>          <dbl>
##  1 84001001 US    USA     840  1001 Autauga  Alabama        US              32.5
##  2 84001003 US    USA     840  1003 Baldwin  Alabama        US              30.7
##  3 84001005 US    USA     840  1005 Barbour  Alabama        US              31.9
##  4 84001007 US    USA     840  1007 Bibb     Alabama        US              33.0
##  5 84001009 US    USA     840  1009 Blount   Alabama        US              34.0
##  6 84001011 US    USA     840  1011 Bullock  Alabama        US              32.1
##  7 84001013 US    USA     840  1013 Butler   Alabama        US              31.8
##  8 84001015 US    USA     840  1015 Calhoun  Alabama        US              33.8
##  9 84001017 US    USA     840  1017 Chambers Alabama        US              32.9
## 10 84001019 US    USA     840  1019 Cherokee Alabama        US              34.2
## #  with 3,332 more rows, and 448 more variables: Long_ <dbl>,
## #   Combined_Key <chr>, 1/22/20 <dbl>, 1/23/20 <dbl>, 1/24/20 <dbl>,
## #   1/25/20 <dbl>, 1/26/20 <dbl>, 1/27/20 <dbl>, 1/28/20 <dbl>, 1/29/20 <dbl>,
## #   1/30/20 <dbl>, 1/31/20 <dbl>, 2/1/20 <dbl>, 2/2/20 <dbl>, 2/3/20 <dbl>,
## #   2/4/20 <dbl>, 2/5/20 <dbl>, 2/6/20 <dbl>, 2/7/20 <dbl>, 2/8/20 <dbl>,
## #   2/9/20 <dbl>, 2/10/20 <dbl>, 2/11/20 <dbl>, 2/12/20 <dbl>, 2/13/20 <dbl>,
## #   2/14/20 <dbl>, 2/15/20 <dbl>, 2/16/20 <dbl>, 2/17/20 <dbl>, 2/18/20 <dbl>,
## #   2/19/20 <dbl>, 2/20/20 <dbl>, 2/21/20 <dbl>, 2/22/20 <dbl>, 2/23/20 <dbl>,
## #   2/24/20 <dbl>, 2/25/20 <dbl>, 2/26/20 <dbl>, 2/27/20 <dbl>, 2/28/20 <dbl>,
…
Using a single call to map(), add only the first 15 names from each of the four data frames to a new variable in df called vars.

Visually compare them to identify issues across the rows.

df %>% 
  mutate(vars = map(data, names)) ->
  df
# check vars
df %>% 
  unnest(vars) %>% 
  group_by(case_type, data) %>% 
  slice(1:15)

## # A tibble: 60 x 3
## # Groups:   case_type, data [4]
##    case_type        data                      vars          
##    <fct>            <list>                    <chr>         
##  1 confirmed_global <spec_tbl_df [274  450]> Province/State
##  2 confirmed_global <spec_tbl_df [274  450]> Country/Region
##  3 confirmed_global <spec_tbl_df [274  450]> Lat           
##  4 confirmed_global <spec_tbl_df [274  450]> Long          
##  5 confirmed_global <spec_tbl_df [274  450]> 1/22/20       
##  6 confirmed_global <spec_tbl_df [274  450]> 1/23/20       
##  7 confirmed_global <spec_tbl_df [274  450]> 1/24/20       
##  8 confirmed_global <spec_tbl_df [274  450]> 1/25/20       
##  9 confirmed_global <spec_tbl_df [274  450]> 1/26/20       
## 10 confirmed_global <spec_tbl_df [274  450]> 1/27/20       
## #  with 50 more rows
…
Update the values in df$vars with the new first 15 names and show the values to check for consistency in each pair of rows.

df %>% 
  mutate(vars = map(data, names)) ->
  df
# check new vars
df %>% 
  unnest(vars) %>% 
  group_by(case_type, data) %>% 
  slice(1:15)

## # A tibble: 60 x 3
## # Groups:   case_type, data [4]
##    case_type        data                 vars          
##    <fct>            <list>               <chr>         
##  1 confirmed_global <tibble [274  453]> Country_State 
##  2 confirmed_global <tibble [274  453]> Province_State
##  3 confirmed_global <tibble [274  453]> Country_Region
##  4 confirmed_global <tibble [274  453]> Lat           
##  5 confirmed_global <tibble [274  453]> Long          
##  6 confirmed_global <tibble [274  453]> 1/22/20       
##  7 confirmed_global <tibble [274  453]> 1/23/20       
##  8 confirmed_global <tibble [274  453]> 1/24/20       
##  9 confirmed_global <tibble [274  453]> 1/25/20       
## 10 confirmed_global <tibble [274  453]> 1/26/20       
## #  with 50 more rows
…
9 How many Country Regions have Multiple Country States?

Calculate the number of Country States for each Country Region

Show in descending order of the number of Country_States by Country_Region.

df_allp %>% 
  select(Country_Region, Country_State) %>% 
  distinct() %>% 
  group_by(Country_Region) %>% 
  summarise(Num_States = n()) %>% 
  arrange(desc(Num_States))

## # A tibble: 192 x 2
##    Country_Region Num_States
##    <chr>               <int>
##  1 US                     59
##  2 China                  33
##  3 Canada                 16
##  4 France                 12
##  5 United Kingdom         12
##  6 Australia               8
##  7 Netherlands             5
##  8 Denmark                 3
##  9 Afghanistan             1
## 10 Albania                 1
## #  with 182 more rows
…
Be sure to look at how the data is reported so the numbers make sense.

df_allp %>% 
  group_by(Country_Region, Continent, case_type, rank_p, rank_d) %>% 
  summarise(cur_tols = max(Cases), 
            per_tols = (cur_tols/(PopTotal*1000*100))) %>% 
  distinct() ->
  df_tolcases

## `summarise()` has grouped output by 'Country_Region', 'Continent', 'case_type', 'rank_p', 'rank_d'. You can override using the `.groups` argument.

df_tolcases

## # A tibble: 386 x 7
## # Groups:   Country_Region, Continent, case_type, rank_p, rank_d [386]
##    Country_Region Continent case_type        rank_p rank_d cur_tols    per_tols
##    <chr>          <chr>     <fct>             <int>  <int>    <dbl>       <dbl>
##  1 Afghanistan    Asia      confirmed_global     37    119    57160 0.0000150  
##  2 Afghanistan    Asia      deaths_global        37    119     2521 0.000000663
##  3 Albania        Europe    confirmed_global    136     79   128393 0.000446   
##  4 Albania        Europe    deaths_global       136     79     2317 0.00000804 
##  5 Algeria        Africa    confirmed_global     34    165   118516 0.0000275  
##  6 Algeria        Africa    deaths_global        34    165     3130 0.000000727
##  7 Andorra        Europe    confirmed_global    182     53    12545 0.00163    
##  8 Andorra        Europe    deaths_global       182     53      120 0.0000156  
##  9 Angola         Africa    confirmed_global     45    148    23457 0.00000737 
## 10 Angola         Africa    deaths_global        45    148      553 0.000000174
## #  with 376 more rows
…
## `summarise()` has grouped output by 'Country_State'. You can override using the `.groups` argument.

df_US_Dth %>% 
  filter(TolDth_byState > 0) ->
  df_US_Dth
df_US_Dth

## # A tibble: 56 x 3
## # Groups:   Country_State [56]
##    Country_State           TolDth_byState Dthper_byState
##    <chr>                            <dbl>          <dbl>
##  1 US_Alabama                        1487    0.00000452 
##  2 US_Alaska                          165    0.000000501
##  3 US_Arizona                        9733    0.0000296  
##  4 US_Arkansas                        634    0.00000193 
##  5 US_California                    23493    0.0000714  
##  6 US_Colorado                        790    0.00000240 
##  7 US_Connecticut                    2355    0.00000716 
##  8 US_Delaware                        788    0.00000239 
##  9 US_District of Columbia           1081    0.00000329 
## 10 US_Florida                        5981    0.0000182  
## #  with 46 more rows
…
